{
	"page": 1,
	"total_results": 72,
	"total_pages": 4,
	"results": [{
		"vote_count": 9932,
		"id": 238,
		"video": false,
		"vote_average": 8.6,
		"title": "The Godfather",
		"popularity": 31.069,
		"poster_path": "/rPdtLWNsZmAtoZl9PK7S2wE3qiS.jpg",
		"original_language": "en",
		"original_title": "The Godfather",
		"genre_ids": [18, 80],
		"backdrop_path": "/6xKCYgH16UuwEGAyroLU6p8HLIn.jpg",
		"adult": false,
		"overview": "Spanning the years 1945 to 1955, a chronicle of the fictional Italian-American Corleone crime family. When organized crime family patriarch, Vito Corleone barely survives an attempt on his life, his youngest son, Michael steps in to take care of the would-be killers, launching a campaign of bloody revenge.",
		"release_date": "1972-03-14"
	}, {
		"vote_count": 5806,
		"id": 240,
		"video": false,
		"vote_average": 8.5,
		"title": "The Godfather: Part II",
		"popularity": 21.363,
		"poster_path": "/bVq65huQ8vHDd1a4Z37QtuyEvpA.jpg",
		"original_language": "en",
		"original_title": "The Godfather: Part II",
		"genre_ids": [18, 80],
		"backdrop_path": "/gLbBRyS7MBrmVUNce91Hmx9vzqI.jpg",
		"adult": false,
		"overview": "In the continuing saga of the Corleone crime family, a young Vito Corleone grows up in Sicily and in 1910s New York. In the 1950s, Michael Corleone attempts to expand the family business into Las Vegas, Hollywood and Cuba.",
		"release_date": "1974-12-20"
	}, {
		"vote_count": 2851,
		"id": 242,
		"video": false,
		"vote_average": 7.3,
		"title": "The Godfather: Part III",
		"popularity": 14.191,
		"poster_path": "/1hdm3Axw9LjITbApvAXBbqO58zE.jpg",
		"original_language": "en",
		"original_title": "The Godfather: Part III",
		"genre_ids": [80, 18, 53],
		"backdrop_path": "/dEuqTwwhfvk66jUKQa7bMqM5Cf7.jpg",
		"adult": false,
		"overview": "In the midst of trying to legitimize his business dealings in 1979 New York and Italy, aging mafia don, Michael Corleone seeks forgiveness for his sins while taking a young protege under his wing.",
		"release_date": "1990-12-24"
	}, {
		"vote_count": 11,
		"id": 134474,
		"video": false,
		"vote_average": 7.1,
		"title": "Godfather",
		"popularity": 1.429,
		"poster_path": "/3PjEZGTHG1ZQHbTc8K9AWAdxQWc.jpg",
		"original_language": "ml",
		"original_title": "ഗോഡ്ഫാദർ",
		"genre_ids": [35, 10749],
		"backdrop_path": "/o0JLrva5zNXnH363Eu3kzDMB0Kh.jpg",
		"adult": false,
		"overview": "The story of Anjooran, and his four sons Balaraman, Swaminathan, Premachandran and Ramabhadran are in severe enmity with the Anappara family.",
		"release_date": "1991-03-03"
	}, {
		"vote_count": 8,
		"id": 77403,
		"video": false,
		"vote_average": 5.3,
		"title": "Disco Godfather",
		"popularity": 2.19,
		"poster_path": "/tjHQ0VD4qnb4TFsJlt1MC6hf7V6.jpg",
		"original_language": "en",
		"original_title": "Disco Godfather",
		"genre_ids": [28, 35],
		"backdrop_path": "/8ZktBg2WA2CEOOYDqxslcoTGDNO.jpg",
		"adult": false,
		"overview": "A retired cop becomes a DJ/celebrity at the Blueberry Hill disco-- he's the \"Disco Godfather!\" All is well until his nephew flips out on a strange new drug that's sweeping the streets, called \"angel dust,\" or PCP. Disco Godfather vows \"to personally come down on the suckers that's producing this shit!\" He takes to the streets, slaps drug dealers and even exposes a crooked cop that is covering for the dealers. In between, he still finds time to manage the Blueberry Hill and perform. \"Put a little slide in yo' glide,\" he pleads to the patrons, \"Put some weight on it!\" Disco Godfather tracks down the kingpin that is behind all the angel dust production, but not before he is kidnapped and forced to inhale PCP through a gas mask!",
		"release_date": "1979-09-04"
	}, {
		"vote_count": 0,
		"id": 187738,
		"video": false,
		"vote_average": 0,
		"title": "Godfather from Canton",
		"popularity": 1.4,
		"poster_path": "/imrk8dWJCLaX2zG8N3kAW8CwSQj.jpg",
		"original_language": "en",
		"original_title": "Godfather from Canton",
		"genre_ids": [28],
		"backdrop_path": null,
		"adult": false,
		"overview": "A coolie is ofter a job a policeman after saving a government official, and through treachery and corruption rises through the ranks of the police, then becomes a gangster.",
		"release_date": "1982-01-01"
	}, {
		"vote_count": 47,
		"id": 364150,
		"video": true,
		"vote_average": 9.3,
		"title": "The Godfather Trilogy: 1972-1990",
		"popularity": 2.256,
		"poster_path": "/3xPl2XzXjDvkdIPHWlpGUES8ANr.jpg",
		"original_language": "en",
		"original_title": "The Godfather Trilogy: 1972-1990",
		"genre_ids": [],
		"backdrop_path": null,
		"adult": false,
		"overview": "The multigenerational saga of the rise and fall of the Corleone crime family.",
		"release_date": "1992-10-17"
	}, {
		"vote_count": 3,
		"id": 80755,
		"video": false,
		"vote_average": 5.3,
		"title": "The Black Godfather",
		"popularity": 1.4,
		"poster_path": "/4B7wQFfKlcAS3QFL95iSnYcdlfJ.jpg",
		"original_language": "en",
		"original_title": "The Black Godfather",
		"genre_ids": [28, 80, 53],
		"backdrop_path": "/sI5k3LSq5GcNIFB7TFPrYCJ6Ij3.jpg",
		"adult": false,
		"overview": "The heroes in The Black Godfather are members of an African-American criminal organization. Like Brando in The Godfather, they're not averse to robbery and murder, but they do draw the line at narcotics. When the Mafia infiltrates the 'hood with dangerous drugs, the Black Godfather (Rod Perry) orders his minions to put an end to this perfidy.",
		"release_date": "1974-09-03"
	}, {
		"vote_count": 9,
		"id": 70829,
		"video": false,
		"vote_average": 4.9,
		"title": "The Last Godfather",
		"popularity": 1.4,
		"poster_path": "/8lJS9NkWgSDbvPBlpqB3M3Bm1hq.jpg",
		"original_language": "ko",
		"original_title": "The Last Godfather",
		"genre_ids": [28, 35, 53],
		"backdrop_path": "/24zpZGsijqPYxPuoz7gBX2OeMQO.jpg",
		"adult": false,
		"overview": "Young-goo the son of mafia boss Don Carini, is too foolish to be part of the mafia elite. One day, Young-goo comes to his father and is trained by Tony V to be his father's successor. A few days later, Young-goo accidentally rescues Nancy, the only daughter of Don Bonfante, the boss of a rival mafia family. But Vinnie, an under-boss of the Bonfante family kidnapped her and fabricates that Young-goo has taken her. Vinnie's behavior provokes an armed conflict between the two families.",
		"release_date": "2010-12-29"
	}, {
		"vote_count": 3,
		"id": 141460,
		"video": false,
		"vote_average": 8,
		"title": "Hong Kong Godfather",
		"popularity": 1.243,
		"poster_path": "/vDwsEqOBtSQsqGyjhfGQbMEgN5d.jpg",
		"original_language": "cn",
		"original_title": "Jian dong xiao xiong",
		"genre_ids": [28, 80],
		"backdrop_path": null,
		"adult": false,
		"overview": "After receiving a life imprisonment sentence for a NY Chinatown massacre, Jia Shi Lan, alias Hei Lan, obtains a pardon through the Mafia's influence. Returning to Hong Kong, Hei Lan attempts to use the stature and fortitude of Brother Han, an elder, but good-natured underworld boss, to gain power and spread the Mafia's influence throughout Southeast Asia. After a deadly double cross leaves many of Han's society dead, two former members, one a cop, the other a florist, and the sole remaining loyalist join forces to bring down the criminal empire of Hei Lan.",
		"release_date": "1985-10-27"
	}, {
		"vote_count": 8,
		"id": 294636,
		"video": false,
		"vote_average": 7.1,
		"title": "The Godfather Legacy",
		"popularity": 1.153,
		"poster_path": "/65iJylODUwjfgv5NUn95STBzPm5.jpg",
		"original_language": "en",
		"original_title": "The Godfather Legacy",
		"genre_ids": [99],
		"backdrop_path": null,
		"adult": false,
		"overview": "THE GODFATHER LEGACY goes deep inside Francis Ford Coppola's epic saga about the Corleone crime family and reveals how the Academy Award-winning film and its sequels became one of the most acclaimed franchises in Hollywood history. Featuring iconic scenes from all three films, never before seen home movies and insightful interviews with filmmakers (Francis Ford Coppola, All Ruddy and Peter Bart), actors (Al Pacino, James Caan, Talia Shire, Joe Mantegna, et al.), law enforcement officials and even former Mafia members. This feature length documentary illustrates why The Godfather trilogy continues to entertain and fascinate audiences and how it continues to impact the way society views everything from capitalism to crime.",
		"release_date": "2012-07-12"
	}, {
		"vote_count": 3,
		"id": 79026,
		"video": false,
		"vote_average": 4.3,
		"title": "El padrino: The Latin Godfather",
		"popularity": 1.56,
		"poster_path": "/2UyLGUuPwZBTifKX8Eb1oqalkfF.jpg",
		"original_language": "de",
		"original_title": "El padrinoo",
		"genre_ids": [28, 80, 18],
		"backdrop_path": "/uqlHLjrYNWKMxboZaHx39orujKM.jpg",
		"adult": false,
		"overview": "In the streets of East Los Angeles, Manny is a formidable drug dealer. Impressed by his extravagant lifestyle and prowess, his young son, Kilo, yearns to follow in his footsteps. Kilo resolves to learn how to prosper in the drug world, and his new life as a dealer begins. In a world where a man wants everything, he may end up with nothing.",
		"release_date": "2004-09-27"
	}, {
		"vote_count": 1,
		"id": 277588,
		"video": false,
		"vote_average": 5,
		"title": "Father and Godfather",
		"popularity": 0.6,
		"poster_path": "/nVymtitHz5MZkzigsUOaPdyhtA.jpg",
		"original_language": "sq",
		"original_title": "Gjoleka djali i abazit",
		"genre_ids": [18],
		"backdrop_path": null,
		"adult": false,
		"overview": "The events take place in a small Albanian village, around the '30ies. This isolated land, dominated by rituals and patriarchal relationships is the spirit that welcomes the newborn child of Abas. Servet, a co-villager, emigrant in the United States of America  comes back in his homeland bringing a new vision and a new mentality, which serves as an inspiration for the 10 years old boy, Gjoleka, the son of Abas. Gjoleka founds himself in between of the ideas of his wild father, Abas and his illuminist godfather, Servet.  Gjoleka symbolizes the young generation in the difficult realities that offer small and underdeveloped countries, where the outside world constitutes an irresistible attraction. The movie shows with a deep realism the human relationships, such as love, jalousie, hate, the impossibility to be integrated with another world, making this way a cruel autopsy of the weird society to which, \"sometime\" we belong.",
		"release_date": "2007-06-19"
	}, {
		"vote_count": 0,
		"id": 598065,
		"video": false,
		"vote_average": 0,
		"title": "Our Godfather",
		"popularity": 0.6,
		"poster_path": null,
		"original_language": "en",
		"original_title": "Our Godfather",
		"genre_ids": [99, 80],
		"backdrop_path": null,
		"adult": false,
		"overview": "OUR GODFATHER is a feature-length documentary about Tommaso Buscetta, the first high-ranking Italian mafia boss ever to turn against Cosa Nostra. Buscetta helped convict more than 400 Mafiosi. He became the Mob's most wanted man in the world - and 11 members of his family were killed. \"He was the most important, protected and endangered witness in US criminal history\" The film tells - for the first time- the Buscetta story with exclusive access to his family, which is breaking its silence after 30 years in hiding.",
		"release_date": ""
	}, {
		"vote_count": 0,
		"id": 554008,
		"video": false,
		"vote_average": 0,
		"title": "Godfather I",
		"popularity": 0.6,
		"poster_path": null,
		"original_language": "en",
		"original_title": "Godfather I",
		"genre_ids": [],
		"backdrop_path": null,
		"adult": false,
		"overview": "A short film by Maria Lassnig, shot in 1974.",
		"release_date": "2018-01-29"
	}, {
		"vote_count": 0,
		"id": 554009,
		"video": false,
		"vote_average": 0,
		"title": "Godfather II",
		"popularity": 0.6,
		"poster_path": null,
		"original_language": "en",
		"original_title": "Godfather II",
		"genre_ids": [],
		"backdrop_path": null,
		"adult": false,
		"overview": "A short film by Maria Lassnig, shot in 1974.",
		"release_date": "2018-01-29"
	}, {
		"vote_count": 0,
		"id": 554010,
		"video": false,
		"vote_average": 0,
		"title": "Godfather III",
		"popularity": 0.6,
		"poster_path": null,
		"original_language": "en",
		"original_title": "Godfather III",
		"genre_ids": [],
		"backdrop_path": null,
		"adult": false,
		"overview": "A short film by Maria Lassnig, shot in 1974.",
		"release_date": "2018-01-29"
	}, {
		"vote_count": 3,
		"id": 46824,
		"video": false,
		"vote_average": 4.7,
		"title": "First Time Godfather",
		"popularity": 1.204,
		"poster_path": "/vKC5c5VZzzN7S4tsqtA9Oxyz5eS.jpg",
		"original_language": "en",
		"original_title": "Πρώτη φορά Νονός",
		"genre_ids": [35],
		"backdrop_path": null,
		"adult": false,
		"overview": "",
		"release_date": "2007-10-04"
	}, {
		"vote_count": 14,
		"id": 56205,
		"video": false,
		"vote_average": 8.4,
		"title": "The Godfather Family: A Look Inside",
		"popularity": 1.16,
		"poster_path": "/yl1wiXxzZ3dVEzZ288WMsxG1UbE.jpg",
		"original_language": "en",
		"original_title": "The Godfather Family: A Look Inside",
		"genre_ids": [99],
		"backdrop_path": "/d0hGPVx9lytOnw21Z9iVhXS3r0L.jpg",
		"adult": false,
		"overview": "A documentary on the making of the three Godfather films, with interviews and recollections from the film makers and cast. This feature also includes the original screen tests of some of the actors for \"The Godfather\" film, and some candid moments on the set of \"The Godfather: Part III.\"",
		"release_date": "1990-07-12"
	}, {
		"vote_count": 5,
		"id": 526803,
		"video": false,
		"vote_average": 7.4,
		"title": "Fred: The Godfather of British Crime",
		"popularity": 1.069,
		"poster_path": "/zQdHIcI3du3xBB9nl6HEdfrExkB.jpg",
		"original_language": "en",
		"original_title": "Fred: The Godfather of British Crime",
		"genre_ids": [],
		"backdrop_path": null,
		"adult": false,
		"overview": "This is an examination into the psyche of former London gangster Freddie Foreman: 85 years old, allegedly responsible for multiple murders, and nearing the end of his life. Fred is the only gangster who lived through the turbulent history of the British underworld and survived to tell the tale.",
		"release_date": "2018-06-04"
	}]
}